Uso básico de los mapas • perumapas
…
Nuevamente, se debe tomar en cuenta los recursos computacionales necesarios para elaborar (renderizar) el mapa. Me tomó alrededor de 4 segundos con una CPU Ryzen 5 3600 6-Core 3.69GHz RAM 16GB GPU Rx 580 8GB.

Mapas personalizados

Distritos agrupados

Una manera de personalizar los mapas es creando grupos de distritos o provincias según algún criterio. Por ejemplo, podemos obtener el mapa de Lima Metropolitana por zonas. Para ello, perumapas provee el conjunto de datos zonas_lima.

zonas_lima
#> # A tibble: 43 x 3
#>    distrito    ubigeo zona  
#>    <chr>       <chr>  <chr> 
#>  1 LIMA        150101 Centro
#>  2 ANCÓN       150102 Norte 
#>  3 ATE         150103 Este  
#>  4 BARRANCO    150104 Centro
#>  5 BREÑA       150105 Centro
#>  6 CARABAYLLO  150106 Norte 
#>  7 CHACLACAYO  150107 Este  
#>  8 CHORRILLOS  150108 Centro
#>  9 CIENEGUILLA 150109 Este  
#> 10 COMAS       150110 Norte 
#> # ... with 33 more rows
…
Criterio numérico

Además de colorear por valores categóricos, es posible mapear el relleno del mapa según valores numéricos. Para este ejemplo se usará el mapa de pobreza de Lima 2018 del paquete perupobreza2018.

library(perupobreza2018)

pobreza_lima <- pobreza2018 %>% 
  filter(region == "LIMA", provincia == "LIMA") %>% 
  select(distrito, ubigeo, pobreza_monetaria)

Este conjunto de datos brinda, entre otras cosas, el porcentaje de población en condiciones de pobreza monetaria para cada distrito.

pobreza_lima
#> # A tibble: 43 x 3
#>    distrito          ubigeo pobreza_monetaria
#>    <chr>             <chr>              <dbl>
#>  1 PUCUSANA          150124              23.8
#>  2 PUENTE PIEDRA     150125              22.7
#>  3 SANTA ROSA        150139              22  
#>  4 INDEPENDENCIA     150112              20.6
#>  5 VILLA EL SALVADOR 150142              20.2
#>  6 PACHACÁMAC        150123              20  
#>  7 ANCÓN             150102              19.2
#>  8 PUNTA HERMOSA     150126              19.2
#>  9 CARABAYLLO        150106              19.2
#> 10 LURÍN             150119              18.3
#> # ... with 33 more rows
…
